ISSS626-GAA - Take-home Exercise 2
…
There are multiple missing values after joining the table. This is due to different spacings of province name. Let us check using the code below

check_value <- tourism %>%
  filter(province_eng %in% c("Buriram", "Chainat", "Chonburi", "Lopburi", "Nong Bua Lamphu", "Phang Nga", "Prachinburi", "Sisaket"))

print(check_value)

# A tibble: 3,200 × 6
   date       province_eng    region_eng     variable           value  year
   <date>     <chr>           <chr>          <chr>              <dbl> <dbl>
 1 2019-01-01 Lopburi         central        ratio_tourist_stay  61.3  2019
 2 2019-01-01 Chainat         central        ratio_tourist_stay  79.3  2019
 3 2019-01-01 Chonburi        east           ratio_tourist_stay  84.3  2019
 4 2019-01-01 Prachinburi     east           ratio_tourist_stay  68.6  2019
 5 2019-01-01 Phang Nga       south          ratio_tourist_stay  86.5  2019
 6 2019-01-01 Buriram         east_northeast ratio_tourist_stay  71.3  2019
 7 2019-01-01 Sisaket         south          ratio_tourist_stay  68.6  2019
 8 2019-01-01 Nong Bua Lamphu east_northeast ratio_tourist_stay  65.0  2019
 9 2020-01-01 Lopburi         central        ratio_tourist_stay  51.5  2020
10 2020-01-01 Chainat         central        ratio_tourist_stay  73.5  2020
# ℹ 3,190 more rows
…
